{
  "realm": "Boxinator",
  "auth-server-url": "https://boxinator-keycloak-exp.herokuapp.com/auth/",
  "ssl-required": "external",
  "resource": "login-test",
  "public-client": true,
  "verify-token-audience": true,
  "use-resource-role-mappings": true,
  "confidential-port": 0
}